info face=04b03 size=32 bold=1 italic=0 charset="" unicode=1 stretchH=100 smooth=0 aa=1 padding=0,0,0,0 spacing=1,1
common lineHeight=32 base=24 scaleW=1024 scaleH=1024 pages=1 packed=0
page id=0 file=large_bold_00.png
chars count=94
char id=33 x=903 y=22 width=6 height=21 xoffset=-1 yoffset=3 xadvance=10 page=0 chnl=0
char id=34 x=546 y=22 width=14 height=9 xoffset=-1 yoffset=3 xadvance=18 page=0 chnl=0
char id=35 x=125 y=0 width=22 height=21 xoffset=-1 yoffset=3 xadvance=26 page=0 chnl=0
char id=36 x=11 y=0 width=18 height=25 xoffset=-1 yoffset=3 xadvance=22 page=0 chnl=0
char id=37 x=148 y=0 width=22 height=21 xoffset=-1 yoffset=3 xadvance=26 page=0 chnl=0
char id=38 x=171 y=0 width=22 height=21 xoffset=0 yoffset=3 xadvance=26 page=0 chnl=0
char id=39 x=502 y=22 width=6 height=9 xoffset=-1 yoffset=3 xadvance=10 page=0 chnl=0
char id=40 x=954 y=22 width=10 height=21 xoffset=-1 yoffset=3 xadvance=14 page=0 chnl=0
char id=41 x=943 y=22 width=10 height=21 xoffset=-1 yoffset=3 xadvance=14 page=0 chnl=0
char id=42 x=617 y=22 width=14 height=13 xoffset=-1 yoffset=3 xadvance=18 page=0 chnl=0
char id=43 x=602 y=22 width=14 height=13 xoffset=-1 yoffset=7 xadvance=18 page=0 chnl=0
char id=44 x=520 y=22 width=10 height=9 xoffset=-1 yoffset=19 xadvance=14 page=0 chnl=0
char id=45 x=468 y=22 width=14 height=5 xoffset=-1 yoffset=11 xadvance=18 page=0 chnl=0
char id=46 x=461 y=22 width=6 height=5 xoffset=-1 yoffset=19 xadvance=10 page=0 chnl=0
char id=47 x=194 y=0 width=22 height=21 xoffset=-1 yoffset=3 xadvance=26 page=0 chnl=0
char id=48 x=329 y=0 width=18 height=21 xoffset=0 yoffset=3 xadvance=22 page=0 chnl=0
char id=49 x=932 y=22 width=10 height=21 xoffset=-1 yoffset=3 xadvance=14 page=0 chnl=0
char id=50 x=348 y=0 width=18 height=21 xoffset=-1 yoffset=3 xadvance=22 page=0 chnl=0
char id=51 x=367 y=0 width=18 height=21 xoffset=-1 yoffset=3 xadvance=22 page=0 chnl=0
char id=52 x=386 y=0 width=18 height=21 xoffset=0 yoffset=3 xadvance=22 page=0 chnl=0
char id=53 x=405 y=0 width=18 height=21 xoffset=-1 yoffset=3 xadvance=22 page=0 chnl=0
char id=54 x=424 y=0 width=18 height=21 xoffset=0 yoffset=3 xadvance=22 page=0 chnl=0
char id=55 x=443 y=0 width=18 height=21 xoffset=-1 yoffset=3 xadvance=22 page=0 chnl=0
char id=56 x=462 y=0 width=18 height=21 xoffset=0 yoffset=3 xadvance=22 page=0 chnl=0
char id=57 x=481 y=0 width=18 height=21 xoffset=0 yoffset=3 xadvance=22 page=0 chnl=0
char id=58 x=580 y=22 width=6 height=13 xoffset=-1 yoffset=7 xadvance=10 page=0 chnl=0
char id=59 x=632 y=22 width=6 height=17 xoffset=-1 yoffset=7 xadvance=10 page=0 chnl=0
char id=60 x=880 y=0 width=14 height=21 xoffset=-1 yoffset=3 xadvance=18 page=0 chnl=0
char id=61 x=587 y=22 width=14 height=13 xoffset=-1 yoffset=7 xadvance=18 page=0 chnl=0
char id=62 x=895 y=0 width=14 height=21 xoffset=-1 yoffset=3 xadvance=18 page=0 chnl=0
char id=63 x=500 y=0 width=18 height=21 xoffset=-1 yoffset=3 xadvance=22 page=0 chnl=0
char id=64 x=217 y=0 width=22 height=21 xoffset=0 yoffset=3 xadvance=26 page=0 chnl=0
char id=65 x=519 y=0 width=18 height=21 xoffset=0 yoffset=3 xadvance=22 page=0 chnl=0
char id=66 x=538 y=0 width=18 height=21 xoffset=0 yoffset=3 xadvance=22 page=0 chnl=0
char id=67 x=910 y=0 width=14 height=21 xoffset=-1 yoffset=3 xadvance=18 page=0 chnl=0
char id=68 x=557 y=0 width=18 height=21 xoffset=0 yoffset=3 xadvance=22 page=0 chnl=0
char id=69 x=925 y=0 width=14 height=21 xoffset=-1 yoffset=3 xadvance=18 page=0 chnl=0
char id=70 x=940 y=0 width=14 height=21 xoffset=-1 yoffset=3 xadvance=18 page=0 chnl=0
char id=71 x=309 y=0 width=19 height=21 xoffset=-1 yoffset=3 xadvance=22 page=0 chnl=0
char id=72 x=576 y=0 width=18 height=21 xoffset=-1 yoffset=3 xadvance=22 page=0 chnl=0
char id=73 x=955 y=0 width=14 height=21 xoffset=-1 yoffset=3 xadvance=18 page=0 chnl=0
char id=74 x=595 y=0 width=18 height=21 xoffset=-1 yoffset=3 xadvance=22 page=0 chnl=0
char id=75 x=614 y=0 width=18 height=21 xoffset=-1 yoffset=3 xadvance=22 page=0 chnl=0
char id=76 x=970 y=0 width=14 height=21 xoffset=-1 yoffset=3 xadvance=18 page=0 chnl=0
char id=77 x=240 y=0 width=22 height=21 xoffset=-1 yoffset=3 xadvance=26 page=0 chnl=0
char id=78 x=633 y=0 width=18 height=21 xoffset=-1 yoffset=3 xadvance=22 page=0 chnl=0
char id=79 x=652 y=0 width=18 height=21 xoffset=0 yoffset=3 xadvance=22 page=0 chnl=0
char id=80 x=671 y=0 width=18 height=21 xoffset=0 yoffset=3 xadvance=22 page=0 chnl=0
char id=81 x=30 y=0 width=18 height=25 xoffset=0 yoffset=3 xadvance=22 page=0 chnl=0
char id=82 x=690 y=0 width=18 height=21 xoffset=0 yoffset=3 xadvance=22 page=0 chnl=0
char id=83 x=709 y=0 width=18 height=21 xoffset=-1 yoffset=3 xadvance=22 page=0 chnl=0
char id=84 x=985 y=0 width=14 height=21 xoffset=-1 yoffset=3 xadvance=18 page=0 chnl=0
char id=85 x=728 y=0 width=18 height=21 xoffset=-1 yoffset=3 xadvance=22 page=0 chnl=0
char id=86 x=747 y=0 width=18 height=21 xoffset=-1 yoffset=3 xadvance=22 page=0 chnl=0
char id=87 x=263 y=0 width=22 height=21 xoffset=-1 yoffset=3 xadvance=26 page=0 chnl=0
char id=88 x=766 y=0 width=18 height=21 xoffset=-1 yoffset=3 xadvance=22 page=0 chnl=0
char id=89 x=785 y=0 width=18 height=21 xoffset=-1 yoffset=3 xadvance=22 page=0 chnl=0
char id=90 x=1000 y=0 width=14 height=21 xoffset=-1 yoffset=3 xadvance=18 page=0 chnl=0
char id=91 x=921 y=22 width=10 height=21 xoffset=-1 yoffset=3 xadvance=14 page=0 chnl=0
char id=92 x=286 y=0 width=22 height=21 xoffset=0 yoffset=3 xadvance=26 page=0 chnl=0
char id=93 x=910 y=22 width=10 height=21 xoffset=-1 yoffset=3 xadvance=14 page=0 chnl=0
char id=94 x=531 y=22 width=14 height=9 xoffset=-1 yoffset=3 xadvance=18 page=0 chnl=0
char id=95 x=483 y=22 width=18 height=5 xoffset=-1 yoffset=19 xadvance=22 page=0 chnl=0
char id=96 x=509 y=22 width=10 height=9 xoffset=-1 yoffset=3 xadvance=14 page=0 chnl=0
char id=97 x=817 y=22 width=18 height=17 xoffset=0 yoffset=7 xadvance=22 page=0 chnl=0
char id=98 x=804 y=0 width=18 height=21 xoffset=0 yoffset=3 xadvance=22 page=0 chnl=0
char id=99 x=669 y=22 width=14 height=17 xoffset=-1 yoffset=7 xadvance=18 page=0 chnl=0
char id=100 x=823 y=0 width=18 height=21 xoffset=0 yoffset=3 xadvance=22 page=0 chnl=0
char id=101 x=798 y=22 width=18 height=17 xoffset=0 yoffset=7 xadvance=22 page=0 chnl=0
char id=102 x=1010 y=22 width=14 height=21 xoffset=-1 yoffset=3 xadvance=18 page=0 chnl=0
char id=103 x=49 y=0 width=18 height=25 xoffset=0 yoffset=7 xadvance=22 page=0 chnl=0
char id=104 x=842 y=0 width=18 height=21 xoffset=-1 yoffset=3 xadvance=22 page=0 chnl=0
char id=105 x=896 y=22 width=6 height=21 xoffset=-1 yoffset=3 xadvance=10 page=0 chnl=0
char id=106 x=0 y=0 width=10 height=29 xoffset=-1 yoffset=3 xadvance=14 page=0 chnl=0
char id=107 x=861 y=0 width=18 height=21 xoffset=-1 yoffset=3 xadvance=22 page=0 chnl=0
char id=108 x=889 y=22 width=6 height=21 xoffset=-1 yoffset=3 xadvance=10 page=0 chnl=0
char id=109 x=859 y=22 width=22 height=17 xoffset=-1 yoffset=7 xadvance=26 page=0 chnl=0
char id=110 x=779 y=22 width=18 height=17 xoffset=-1 yoffset=7 xadvance=22 page=0 chnl=0
char id=111 x=760 y=22 width=18 height=17 xoffset=0 yoffset=7 xadvance=22 page=0 chnl=0
char id=112 x=68 y=0 width=18 height=25 xoffset=0 yoffset=7 xadvance=22 page=0 chnl=0
char id=113 x=87 y=0 width=18 height=25 xoffset=0 yoffset=7 xadvance=22 page=0 chnl=0
char id=114 x=654 y=22 width=14 height=17 xoffset=-1 yoffset=7 xadvance=18 page=0 chnl=0
char id=115 x=741 y=22 width=18 height=17 xoffset=-1 yoffset=7 xadvance=22 page=0 chnl=0
char id=116 x=995 y=22 width=14 height=21 xoffset=-1 yoffset=3 xadvance=18 page=0 chnl=0
char id=117 x=722 y=22 width=18 height=17 xoffset=-1 yoffset=7 xadvance=22 page=0 chnl=0
char id=118 x=703 y=22 width=18 height=17 xoffset=-1 yoffset=7 xadvance=22 page=0 chnl=0
char id=119 x=836 y=22 width=22 height=17 xoffset=-1 yoffset=7 xadvance=26 page=0 chnl=0
char id=120 x=639 y=22 width=14 height=17 xoffset=-1 yoffset=7 xadvance=18 page=0 chnl=0
char id=121 x=106 y=0 width=18 height=25 xoffset=-1 yoffset=7 xadvance=22 page=0 chnl=0
char id=122 x=684 y=22 width=18 height=17 xoffset=-1 yoffset=7 xadvance=22 page=0 chnl=0
char id=123 x=980 y=22 width=14 height=21 xoffset=-1 yoffset=3 xadvance=18 page=0 chnl=0
char id=124 x=882 y=22 width=6 height=21 xoffset=-1 yoffset=3 xadvance=10 page=0 chnl=0
char id=125 x=965 y=22 width=14 height=21 xoffset=-1 yoffset=3 xadvance=18 page=0 chnl=0
char id=126 x=561 y=22 width=18 height=9 xoffset=-1 yoffset=3 xadvance=22 page=0 chnl=0
kernings count=0
